%YAML 1.1
%TAG !u! tag:unity3d.com,2011:
--- !u!1045 &1
EditorBuildSettings:
  m_ObjectHideFlags: 0
  serializedVersion: 2
  m_Scenes:
  - enabled: 1
    path: Assets/Scenes/Main Scenes/SXR.unity
    guid: ab75b1daa27fde74b871d911fb855098
  - enabled: 1
    path: Assets/Scenes/Main Scenes/homescreen.unity
    guid: d82f3ec82eb153a4da2309cce4bacd75
  - enabled: 1
    path: Assets/Scenes/Main Scenes/oil_change_preview.unity
    guid: 6eabd8b83623b664e90a046a3aa77a2e
  - enabled: 0
    path: Assets/AR_Tracking.unity
    guid: aa1213822d4477e4e8cc01cc8feeb72f
  - enabled: 1
    path: Assets/Scenes/Main Scenes/training_screen.unity
    guid: 102d84d6d9e0a9d4d97653eed90dd465
  m_configObjects:
    com.unity.xr.management.loader_settings: {fileID: 11400000, guid: 61a005ef42b01794283c3bcf921a672a,
      type: 2}
